"Reference","Value","Datasheet","Footprint","Qty","DNP"
"BT70","SMTU2032-LF ","","SamacSys_Parts:SMTU2032C","1",""
"C10,C90","1000uF","-- verschiedene Werte --","-- verschiedene Werte --","2",""
"C11,C154,C510","47uF","~","-- verschiedene Werte --","3",""
"C12,C20,C30,C31,C32,C33,C40,C63,C71,C73,C82,C150,C152,C506,C507,C509,C512,C513,C514,C515,C552,C599","100nF","~","-- verschiedene Werte --","22",""
"C21,C80,C503","1uF","~","-- verschiedene Werte --","3",""
"C41,J9,J60,J82,J90,RN30,RN31,RN34,RN35,RN71,RN88,RN94,RN510,RNO0","nb","~","-- verschiedene Werte --","14",""
"C42,C75,C135,C136","2.2uF","~","Capacitor_SMD:C_0805_2012Metric","4",""
"C43,C60,C76,C131,C134,C153,C155,C165,C504,C505,C553","100uF","~","-- verschiedene Werte --","11",""
"C61,C62","500pF","~","SMD_C_R_smalllabel:C_0805_2012Metric","2",""
"C74","10nF","~","Capacitor_SMD:C_0805_2012Metric","1",""
"C81,C151,C177,C508","10uF","~","-- verschiedene Werte --","4",""
"C130","4.7uF","~","Capacitor_SMD:C_1210_3225Metric","1",""
"C176","10uF/50V","~","Capacitor_Tantalum_SMD:CP_EIA-7343-15_Kemet-W","1",""
"C511","22uF","~","Capacitor_SMD:C_1206_3216Metric","1",""
"C550,C592","22pF","~","SMD_C_R_smalllabel:C_0805_2012Metric","2",""
"C551","100pF","~","SMD_C_R_smalllabel:C_0805_2012Metric","1",""
"C591,C593,C594,C595","33pF","~","SMD_C_R_smalllabel:C_0805_2012Metric","4",""
"D1","SZMMSZ39T1G","~","Diode_SMD:D_SOD-123","1",""
"D2","P6SMB30CA-Q (DO-214AA-2)","https://www.bourns.com/docs/product-datasheets/p6smb-q.pdf?sfvrsn=a8c47bf6_64","SamacSys_Parts:DIONM5443X244N","1",""
"D4","BZX84C7V5-7-F (SOT-23)","https://www.arrow.com/en/products/bzx84c7v5-7-f/diodes-incorporated","SamacSys_Parts:SOT96P240X110-3N","1",""
"D5","PESD3V3S2UT,215","https://assets.nexperia.com/documents/data-sheet/PESDXS2UT_SERIES.pdf","SamacSys_Parts:SOT95P230X110-3N","1",""
"D90,D503","MMBZ5233BLT1G","https://componentsearchengine.com/Datasheets/2/MMBZ5233BLT1G.pdf","SamacSys_Parts:SOT96P237X111-3N","2",""
"D500,D501","AQ4020-01FTG","https://componentsearchengine.com/Datasheets/2/AQ4020-01FTG.pdf","SamacSys_Parts:SOD2613X114N","2",""
"D502","SP0504SHTG","http://www.littelfuse.com/~/media/electronics/datasheets/tvs_diode_arrays/littelfuse_tvs_diode_array_sp0504s_datasheet.pdf.pdf","SamacSys_Parts:SOT95P280X145-6N","1",""
"D504,D505","ESD9L5.0ST5G","http://www.onsemi.com/pub/Collateral/ESD9L-D.PDF","SamacSys_Parts:SODFL1006X40N","2",""
"DUE3V3,DUEV5,DUEV12,JP130,JP150,LS1","SolderJumper_2_Open","~","Jumper:SolderJumper-2_P1.3mm_Open_Pad1.0x1.5mm","6",""
"F1","MF-R185","https://www.bourns.com/pdfs/mfr.pdf","SamacSys_Parts:MF-R_12X3_","1",""
"F40,F41,F60","MF-NSMF020X-2 (1206)","https://www.arrow.com/en/products/mf-nsmf020x-2/bourns","-- verschiedene Werte --","3",""
"F61,F62,F63,F64,F65,F66","0ZCM0002FF2G","https://www.belfuse.com/product-detail/circuit-protection-0zcm-series","SamacSys_Parts:FUSC1607X85N","6",""
"FID1,FID2","Fiducial","~","Fiducial:Fiducial_1mm_Mask2mm","2",""
"H1,H2,H3,H4,H5,H6,H7,H9,H10,H20","MountingHole_Pad","~","-- verschiedene Werte --","10",""
"H14","ResetHole","~","ResetHole:ResetHole","1",""
"H51","3.8V","~","Library:MountingHole_M1","1",""
"H70","DS3231Hole","~","MountingHole:MountingHole_2.2mm_M2","1",""
"IC6","THVD1406DR","https://www.ti.com/lit/ds/symlink/thvd1426.pdf?HQS=dis-mous-null-mousermode-dsf-pf-null-wwe&ts=1667817313932","SamacSys_Parts:SOIC127P600X175-8N","1",""
"IC131","TPS62842DGRR (HVSSOP-8)","https://www.ti.com/lit/ds/symlink/tps62840.pdf?ts=1616629326125&ref_url=https%253A%252F%252Fwww.ti.com%252Fproduct%252FTPS62840","SamacSys_Parts:SOP65P490X110-9N","1",""
"IC133","MCP1812BT-033_TT","http://ww1.microchip.com/downloads/en/DeviceDoc/MCP1811A-11B-12A-12B-Data-Sheet-20006088B.pdf","SamacSys_Parts:SOT95P237X112-3N","1",""
"IC151,IC501","LMR51430YDDCR","https://www.ti.com/lit/ds/symlink/lmr51430.pdf?ts=1657817980313&ref_url=https%253A%252F%252Fwww.ti.com%252Fproduct%252FLMR51430%253FkeyMatch%253DLMR51430%2526tisearch%253Dsearch-everything%2526usecase%253DGPN","SamacSys_Parts:SOT95P280X110-6N","2",""
"IC500","TXB0104DR","http://www.ti.com/lit/ds/symlink/txb0104.pdf","Package_SO:SOIC-14_3.9x8.7mm_P1.27mm","1",""
"J1","L721RA","","L721RA-lib:SWITCHCRAFT_L721RA","1",""
"J2","045036006200862+","https://ele.kyocera.com/assets/products/connector/drawing/BJS5036012.pdf","SamacSys_Parts:045036006200862","1",""
"J3,J4,J5","CONSMA002-L-G","https://linxtechnologies.com/wp/wp-content/uploads/CONSMA002-L-G.pdf","SamacSys_Parts:CONSMA002LG","3",""
"J6","61400413321","http://katalog.we-online.de/em/datasheet/61400413321.pdf","SamacSys_Parts:61400413321","1",""
"J80,J81,U71","MPE 115-1-004","~","Connector_PinSocket_2.54mm:PinSocket_1x04_P2.54mm_Vertical","3",""
"J83","800SP9B6M6RE","http://spec_sheets.e-switch.com/specs/T811006.pdf","SamacSys_Parts:800SP9B6M6RE","1",""
"J550","Conn_01x08","~","Connector_PinSocket_2.54mm:PinSocket_1x08_P2.54mm_Vertical","1",""
"JP53","JP53","~","Jumper:SolderJumper-2_P1.3mm_Open_Pad1.0x1.5mm","1",""
"JP60,JP131,JP151","SolderJumper_3_Open","~","Jumper:SolderJumper-3_P1.3mm_Open_Pad1.0x1.5mm","3",""
"JP80","DisplayJumper","~","Jumper:SolderJumper-3_P1.3mm_Open_Pad1.0x1.5mm","1",""
"K20","693061010911","","SDcard-lib:693061010911","1",""
"L1,L90","7447021","~","SamacSys_Parts:WE_7447021","2",""
"L13","DFE201612E-2R2M=P2","~","Inductor_SMD:L_1008_2520Metric","1",""
"L15,L500","3.3u","~","78439344033:78439344033","2",""
"L501","74279206","","SamacSys_Parts:CAPC2012X110N","1",""
"L599","744761147C","https://componentsearchengine.com/Datasheets/1/744761147C.pdf","SamacSys_Parts:WE-KI_0603C30","1",""
"M0,M71,M80,M93,Q502,Q504","SI2369DS-T1-GE3","https://www.vishay.com/docs/62865/si2369d.pdf","-- verschiedene Werte --","6",""
"M30,M31,M91,Q500,Q501,Q503","BSS138","https://www.onsemi.com/pub/Collateral/BSS138-D.PDF","Package_TO_SOT_SMD:SOT-23","6",""
"M40","BSS123-G","https://www.mouser.de/datasheet/2/308/1/BSS123_D-2310466.pdf","SamacSys_Parts:SOT96P237X111-3N","1",""
"M64","BSS138 (SOT-23-3)","https://www.onsemi.com/pub/Collateral/BSS138-D.PDF","Package_TO_SOT_SMD:SOT-23","1",""
"M65,M92","FDN340P ","https://www.mouser.de/datasheet/2/308/1/FDN340P_D-2312921.pdf","SamacSys_Parts:SOT95P237X112-3N","2",""
"R0,R10,R11,R61,R72,R82,R92,R150,R503,R509,R550","100k","~","Resistor_SMD:R_0805_2012Metric","11",""
"R12","1M","~","Resistor_SMD:R_0805_2012Metric","1",""
"R31,R34,R40","3.9k","~","Resistor_SMD:R_0805_2012Metric","3",""
"R32,R33,R35,R60,R70,R80,R91,R93","10k","~","Resistor_SMD:R_0805_2012Metric","8",""
"R41,R42","510","~","Resistor_SMD:R_0805_2012Metric","2",""
"R43","200k","~","Resistor_SMD:R_0805_2012Metric","1",""
"R64,R66","20k","~","Resistor_SMD:R_0805_2012Metric","2",""
"R68,R301,R304","120","~","Resistor_SMD:R_0805_2012Metric","3",""
"R81,R5041","30k","~","Resistor_SMD:R_0805_2012Metric","2",""
"R130,R508,R5042","51k","~","Resistor_SMD:R_0805_2012Metric","3",""
"R151","13k","~","Resistor_SMD:R_0805_2012Metric","1",""
"R300,R302,R303,R305","604","~","Resistor_SMD:R_0805_2012Metric","4",""
"R505,R507,R552,R554","47k","~","Resistor_SMD:R_0805_2012Metric","4",""
"R506,R553","4.7k","~","Resistor_SMD:R_0805_2012Metric","2",""
"R511","0","~","Resistor_SMD:R_0805_2012Metric","1",""
"R551,R555,R556","5.6k","~","Resistor_SMD:R_0805_2012Metric","3",""
"R593","10","~","Resistor_SMD:R_0805_2012Metric","1",""
"R594,R595,R596","22","~","Resistor_SMD:R_0805_2012Metric","3",""
"R597,R598,R599","100","~","Resistor_SMD:R_0805_2012Metric","3",""
"RN20","EXB-E10C103J","","SamacSys_Parts:EXBE10C103J","1",""
"S1","7201MD9ABE","https://www.ckswitches.com/media/1394/7000toggle.pdf","SamacSys_Parts:7201MD9ABE","1",""
"T1","IPD042P03L3GATMA1","https://www.infineon.com/dgdl/Infineon-IPD042P03L3_G-DS-v02_02-en.pdf?fileId=db3a30431d8a6b3c011d90c8c6e60425","SamacSys_Parts:IPD040N03LG","1",""
"TX1J1","TX1J","~","Jumper:SolderJumper-3_P1.3mm_Open_Pad1.0x1.5mm","1",""
"TX2J1","TX2J","~","Jumper:SolderJumper-3_P1.3mm_Open_Pad1.0x1.5mm","1",""
"TX3J1","TX3J","~","Jumper:SolderJumper-3_P1.3mm_Open_Pad1.0x1.5mm","1",""
"U30","LTC4315IMS#PBF (MSOP-12)","https://datasheet.datasheetarchive.com/originals/distributors/Datasheets_SAMA/d084894e196df203d55dce5561614740.pdf","SamacSys_Parts:SOP65P490X110-12N","1",""
"U31","PCA9615DPZ (TSSOP-10)","","SamacSys_Parts:SOP50P490X110-10N","1",""
"U32","TXS0104EDR (SOIC-14)","","SamacSys_Parts:SOIC127P600X175-14N","1",""
"U40","SN74LVC1G240DBVR (SOT-23-5)","http://www.ti.com/lit/gpn/sn74lvc1g240","SamacSys_Parts:SOT95P280X145-5N","1",""
"U41","IK0512SA (SIP-4)","","Converter_DCDC:Converter_DCDC_Murata_MEE3SxxxxSC_THT","1",""
"U42","1757255","http://www.phoenixcontact.com/de/produkte/1757255/pdf","SamacSys_Parts:1757255","1",""
"U60","5406203-3","https://www.arrow.com/en/products/j8064e64nl/pulse-electronics-corporation","SamacSys_Parts:J8064E64NL","1",""
"U72","BME280","https://datasheet.datasheetarchive.com/originals/distributors/DKDS-24/462906.pdf","SamacSys_Parts:BME280","1",""
"U73","RTC DS3231","~","Connector_PinSocket_2.54mm:PinSocket_1x06_P2.54mm_Vertical","1",""
"U75","DS3231SN#","https://datasheets.maximintegrated.com/en/ds/DS3231.pdf","SamacSys_Parts:SOIC127P1032X265-16N","1",""
"U80","PCB_Display","","PCB_Display:PCB_Display","1",""
"U131","173950336","https://componentsearchengine.com/Datasheets/2/173950336.pdf","SamacSys_Parts:173950336","1",""
"U151","173950536","https://katalog.we-online.com/pm/datasheet/173950578.pdf","SamacSys_Parts:173950578","1",""
"U162,U170","TSRN_1-2465","https://tracopower.com/tsrn1-datasheet/","SamacSys_Parts:TSRN12490","2",""
"U500","SIM7600E-H","","SamacSys_Parts:IC_SIM7600E-H","1",""
"U501","BC95","","SamacSys_Parts:XCVR_BC95GJATEA-02-STD","1",""
"UN80","MRK_WAN","","MKR:MKR","1",""
"USB5V1","USB5V","~","Jumper:SolderJumper-2_P1.3mm_Open_Pad1.0x1.5mm","1",""
"X90","SS-52300-001","","SamacSys_Parts:61400416121","1",""
"XA1","Arduino_Due_Shield","https://store.arduino.cc/products/arduino-due","Arduino:Arduino_Due_Shield","1",""
